example_accelerometer_tb.vcd
$date
  Tue Apr 29 10:04:49 2025
$end
$version
  GHDL v0
$end
$timescale
  1 fs
$end
$scope module standard $end
$upscope $end
$scope module std_logic_1164 $end
$upscope $end
$scope module numeric_std $end
$upscope $end
$scope module accelerometer_tb $end
$var reg 1 ! clk $end
$var reg 1 " reset $end
$var reg 1 # enable $end
$var reg 16 $ x_axis[15:0] $end
$var reg 16 % y_axis[15:0] $end
$var reg 16 & z_axis[15:0] $end
$var reg 1 ' data_valid $end
$scope module uut $end
$var reg 1 ( clk $end
$var reg 1 ) reset $end
$var reg 1 * enable $end
$var reg 16 + x_axis[15:0] $end
$var reg 16 , y_axis[15:0] $end
$var reg 16 - z_axis[15:0] $end
$var reg 1 . data_valid $end
$var reg 8 / counter[7:0] $end
$var reg 16 0 noise_x[15:0] $end
$var reg 16 1 noise_y[15:0] $end
$var reg 16 2 noise_z[15:0] $end
$upscope $end
$upscope $end
$enddefinitions $end
#0
0!
1"
0#
b0000000000000000 $
b0000000000000000 %
b0000000000000000 &
0'
0(
1)
0*
b0000000000000000 +
b0000000000000000 ,
b0000000000000000 -
0.
b00000000 /
b0000000000000000 0
b0000000000000000 1
b0000000000000000 2
#5000000
1!
1(
#10000000
0!
0(
#15000000
1!
1(
#20000000
0!
0"
1#
0(
0)
1*
#25000000
1!
b0000001111101000 $
b0010011001001000 &
1'
1(
b0000001111101000 +
b0010011001001000 -
1.
b00000001 /
#30000000
0!
0(
#35000000
1!
1(
b00000010 /
#40000000
0!
0(
#45000000
1!
1(
b00000011 /
#50000000
0!
0(
#55000000
1!
1(
b00000100 /
#60000000
0!
0(
#65000000
1!
1(
b00000101 /
#70000000
0!
0(
#75000000
1!
1(
b00000110 /
#80000000
0!
0(
#85000000
1!
1(
b00000111 /
#90000000
0!
0(
#95000000
1!
1(
b00001000 /
#100000000
0!
0(
#105000000
1!
1(
b00001001 /
#110000000
0!
0(
#115000000
1!
1(
b00001010 /
#120000000
0!
0#
0(
0*
#125000000
1!
b0000000000000000 $
b0000000000000000 &
0'
1(
b0000000000000000 +
b0000000000000000 -
0.
#130000000
0!
0(
#135000000
1!
1(
#140000000
0!
0(
#145000000
1!
1(
#150000000
0!
0(
#155000000
1!
1(
#160000000
0!
0(
#165000000
1!
1(
#170000000
0!
1#
0(
1*
#175000000
1!
b0000001111101000 $
b0010011001001000 &
1'
1(
b0000001111101000 +
b0010011001001000 -
1.
b00001011 /
#180000000
0!
0(
#185000000
1!
1(
b00001100 /
#190000000
0!
0(
#195000000
1!
1(
b00001101 /
#200000000
0!
0(
#205000000
1!
1(
b00001110 /
#210000000
0!
0(
#215000000
1!
1(
b00001111 /
#220000000
0!
0(
#225000000
1!
1(
b00010000 /
#230000000
0!
0(
#235000000
1!
1(
b00010001 /
#240000000
0!
0(
#245000000
1!
1(
b00010010 /
#250000000
0!
0(
#255000000
1!
1(
b00010011 /
#260000000
0!
0(
#265000000
1!
1(
b00010100 /
#270000000
0!
0(
#275000000
1!
1(
b00010101 /
#280000000
0!
0(
#285000000
1!
1(
b00010110 /
#290000000
0!
0(
#295000000
1!
1(
b00010111 /
#300000000
0!
0(
#305000000
1!
1(
b00011000 /
#310000000
0!
0(
#315000000
1!
1(
b00011001 /
#320000000
0!
0(
#325000000
1!
1(
b00011010 /
#330000000
0!
0(
#335000000
1!
1(
b00011011 /
#340000000
0!
0(
#345000000
1!
1(
b00011100 /
#350000000
0!
0(
#355000000
1!
1(
b00011101 /
#360000000
0!
0(
#365000000
1!
1(
b00011110 /
#370000000
0!
0(
#375000000
1!
1(
b00011111 /
#380000000
0!
0(
#385000000
1!
1(
b00100000 /
#390000000
0!
0(
#395000000
1!
1(
b00100001 /
#400000000
0!
0(
#405000000
1!
1(
b00100010 /
#410000000
0!
0(
#415000000
1!
1(
b00100011 /
#420000000
0!
0(
#425000000
1!
1(
b00100100 /
#430000000
0!
0(
#435000000
1!
1(
b00100101 /
#440000000
0!
0(
#445000000
1!
1(
b00100110 /
#450000000
0!
0(
#455000000
1!
1(
b00100111 /
#460000000
0!
0(
#465000000
1!
1(
b00101000 /
#470000000
0!
0(
#475000000
1!
1(
b00101001 /
#480000000
0!
0(
#485000000
1!
1(
b00101010 /
#490000000
0!
0(
#495000000
1!
1(
b00101011 /
